{
  "attributes": {
    "page": 1,
    "pagesize": 20,
    "total_pages": 5,
    "total": 87
  },
  "items": [
    {
      "id": 284116,
      "word": "cat",
      "original": "cat",
      "num_pronunciations": "46",
      "standard_pronunciation": {
        "id": 2685001,
        "addtime": "2013-12-29 09:19:45",
        "hits": 19348,
        "username": "Slick",
        "sex": "m",
        "country": "United States",
        "country_code": "US",
        "code": "en",
        "langname": "English",
        "pathmp3": "https://apifree.forvo.com/audio/1k271g2d322p223d2h3i223l3n2c1j1p382f211f29331l3p262n342j1k231o373h31341g2f263q3q3a1m3d27372c3b282o223j2823253l2k282933291m1k2m2p_3c2c1n1p3e35293j373j1i3k1o2k3e292838262h292h1t1t",
        "pathogg": "https://apifree.forvo.com/audio/2c2o36212o29211m3d1i2b1f2o3m223h2n3d3j3m3732341l3a2l3p353g2d363g1h2g3o28342b2o1g3j3l2n1h1i292d232p2k2p2a1k1n33242f3p3j292h1k331k_2i211m2c291m2b1j372l28323d2d343g3k1g212m3d2h1t1t",
        "rate": 10,
        "num_votes": 10,
        "num_positive_votes": 10
      }
    },
    {
      "id": 73352,
      "word": "cat_stevens",
      "original": "Cat Stevens",
      "num_pronunciations": "2",
      "standard_pronunciation": {
        "id": 38625,
        "addtime": "2008-09-11 23:21:46",
        "hits": 426,
        "username": "anakat",
        "sex": "f",
        "country": "United States",
        "country_code": "US",
        "code": "en",
        "langname": "English",
        "pathmp3": "https://apifree.forvo.com/audio/2a3m1j1n2d1k3q2d26373g3n2429262g2g3629282p3g2l3n281p1g27352f3p1i392o3p263o351f1m3i2e1j2l1j1b2b3e1j2n2d2729392e2c3k273d3h1j262839_272h3m2a363e2p2c372e373f2m262m2q3g2n2d371j211t1t",
        "pathogg": "https://apifree.forvo.com/audio/213m2f3h2l1l2k27222m293h3k382g3b1i2g2e3f1o29372h3q292b252c1k2e2q3m2q3d1m2l393n28242j37221o1g3l3k3o3l2o333k2h37341b392633291l2e2a_2i1h2l29312i241k1j353o2m2a3d3f2k2j3k262c1j3n1t1t",
        "rate": 1,
        "num_votes": 1,
        "num_positive_votes": 1
      }
    },
    {
      "id": 286128,
      "word": "esadir.cat",
      "original": "esadir.cat",
      "num_pronunciations": "1",
      "standard_pronunciation": {
        "id": 49043,
        "addtime": "2008-10-16 23:12:25",
        "hits": 520,
        "username": "multi22",
        "sex": "m",
        "country": "Spain",
        "country_code": "ES",
        "code": "ca",
        "langname": "Catalan",
        "pathmp3": "https://apifree.forvo.com/audio/1f352k3i2n3b2i3f36211h1j2f3a3i3o3l383d3e332h393g1b2j3a1b3k2n3k382g381f38233h2n3n231h1b3e1l1g36213g2b2g1i3l3k1f2d1i2h3e3m2e3l26312b3h1g2c2j3a2a3a3j2m2c3i1p262j3636372b2d1j211t1t_2p2m3o3i37252a363k3j2c3f3h3b292g37353p1l2b211t1t",
        "pathogg": "https://apifree.forvo.com/audio/2f2d3o341o243m2q3g2p2o2k1h2l2p25383p1m373j3h3e2h2l2l313p2l383c3d2o2c2k2437282l2h3j1o2n341g3i2b2k2h1k1m2l1f2p2f253l333h1h1n3a21341g262d3n1k2l1n2l2e1m3m1f213b241g2p1g3f372b211t1t_2j1i283j293o3h2n271n23262934272p3p3h3j3l3k3n1t1t",
        "rate": 0,
        "num_votes": 0,
        "num_positive_votes": 0
      }
    },
    {
      "id": 298325,
      "word": "cat_shark",
      "original": "cat shark",
      "num_pronunciations": "1",
      "standard_pronunciation": {
        "id": 56632,
        "addtime": "2008-11-09 23:47:10",
        "hits": 1032,
        "username": "mooncow",
        "sex": "m",
        "country": "United Kingdom",
        "country_code": "GB",
        "code": "en",
        "langname": "English",
        "pathmp3": "https://apifree.forvo.com/audio/1p2d3n3h2j3c2921351p1o272m1p35351o2f3b361b2o3d3l1m1f2n2h3k2e1j1j2a2k1i233p2k3c3l29212a2h2l391b1o3m2e333g3o263d3a2p2m38362i3g352i1o383e252b2h3q3g2q29211i381n3f3j1h263i393m2h1t1t_293o2g1g311n232p21231p2m3e1j392i3k3j1h2g3g371t1t",
        "pathogg": "https://apifree.forvo.com/audio/2e3j3q3n373l2535283c3c32373o2a252g2l3j2a3o312i2f1l3c2j261b2d2e373l2n283e3h1b36373d321l1i2c3a222q3a282i1n2b2k3h22342d3p3q3a2i223d2b1p24242d3q2m2q3f292b2n2q1f2p3f3p3p3a2d22371t1t_323g3l1f3o1g1p341i2j3o232h38272i3m2f1m1b293n1t1t",
        "rate": 0,
        "num_votes": 0,
        "num_positive_votes": 0
      }
    },
    {
      "id": 298457,
      "word": "false_cat_shark",
      "original": "false cat shark",
      "num_pronunciations": "1",
      "standard_pronunciation": {
        "id": 56946,
        "addtime": "2008-11-10 03:16:56",
        "hits": 767,
        "username": "mooncow",
        "sex": "m",
        "country": "United Kingdom",
        "country_code": "GB",
        "code": "en",
        "langname": "English",
        "pathmp3": "https://apifree.forvo.com/audio/2f211f1m292k2b2a1b242c3l3m3a3d2b2h291m361b253b271i3i2634373i2e271o3b2k3b3l1l372e2f3a3l3p3n3h372a1i1p1o1k2431352o1g2c1b1p2p35311k2321222n3d1k3g2q2j3n3q382g2e2k3k3l2f3o1n1j3n1t1t_3h2m322o382k2g253b2d2p2k1p1o32393f2j2q3g243n1t1t",
        "pathogg": "https://apifree.forvo.com/audio/383a1g2b1p2m2h29332g2g3e3g2c3p233h392p253m392n3h262731342d3e3q1i3q2l2b2n3h3c1p3a2l1p322h3m2q3e293m272i263g1g3g1m2m2e2f1n1k371p213e2o2j3b3m1b1n1g2l3a353p1h36282e2i2f1m3k333n1t1t_3d3i3k3n393b3q2l3p3f2j25322b3c2p2b3d2q273c3n1t1t",
        "rate": 0,
        "num_votes": 0,
        "num_positive_votes": 0
      }
    },
    {
      "id": 298466,
      "word": "finback_cat_shark",
      "original": "finback cat shark",
      "num_pronunciations": "1",
      "standard_pronunciation": {
        "id": 56957,
        "addtime": "2008-11-10 03:19:36",
        "hits": 670,
        "username": "mooncow",
        "sex": "m",
        "country": "United Kingdom",
        "country_code": "GB",
        "code": "en",
        "langname": "English",
        "pathmp3": "https://apifree.forvo.com/audio/331f2c2m2m28381f3f1j3g3c2c3c333q1b321g221k1f1l3b282p3h262f1h283p2e2k3o2l241h2a1h1g3g3933222c2b211o3p3k2q2i2h272326253c1f363d25293j2p2g352a2j1h3m2o1i241h1k2f2k2e2f3c2l1n31371t1t_221f2o1m321g3p3a3c3j2m3n1g2k2n3g3m3a3q381i371t1t",
        "pathogg": "https://apifree.forvo.com/audio/2a1h253h2g3m3l2e3138371p1o2h1k22263j2d361f3l2b27292l323j3o3j3g3m3c2p1l1n1p313j2m3l342e1n21373q3e2e342o272q2c1i1i1k2a36261f3k1o3b232l293h1o26273i281g3227332n1n2l3q253h2l292h1t1t_2h2p1b2m2q362g2q1p273d2d281l1k293d3a26342h371t1t",
        "rate": 0,
        "num_votes": 0,
        "num_positive_votes": 0
      }
    },
    {
      "id": 307922,
      "word": "cat's_paw",
      "original": "cat's paw",
      "num_pronunciations": "3",
      "standard_pronunciation": {
        "id": 64995,
        "addtime": "2008-11-21 05:04:47",
        "hits": 1603,
        "username": "mooncow",
        "sex": "m",
        "country": "United Kingdom",
        "country_code": "GB",
        "code": "en",
        "langname": "English",
        "pathmp3": "https://apifree.forvo.com/audio/223e2j273j331p2o292d3e3j2l22292g2d363g2828373a2i273p2a21343n2h2m25331f3a1o2c3p1h1j1h1f3f3j1p372g3n3a1i342n2h1n3i3k3a1i2g311b372d351j3k3g37371i1m3h2p3d3a1n3h2q1l2n3e393k312h1t1t_3435212d2d1p372m2e1i3e283b1p25232937242d35211t1t",
        "pathogg": "https://apifree.forvo.com/audio/2b1g3m2c2b3q213c2e1g3k3i1m2k3n3c251m2h3b283c393j1g333l1n3d3a1p1m32382b27242q341p3k3o3d1g322l211h1h3o242o2j252n3o2p1h273h2o352j2d1k3e292m373j2d343g1g223k3928241o3o3o2c2n32211t1t_1m2d1i37321k3n2i1i232p331f3a273o3338252k312h1t1t",
        "rate": 1,
        "num_votes": 1,
        "num_positive_votes": 1
      }
    },
    {
      "id": 391425,
      "word": "cat-o-nine-tails",
      "original": "cat-o-nine-tails",
      "num_pronunciations": "1",
      "standard_pronunciation": {
        "id": 129332,
        "addtime": "2009-02-19 16:12:02",
        "hits": 756,
        "username": "imscotte1",
        "sex": "m",
        "country": "United States",
        "country_code": "US",
        "code": "en",
        "langname": "English",
        "pathmp3": "https://apifree.forvo.com/audio/3d3o38311j3c3h2m3i3h1j1h1j262i3l3q3n2f1h2h3n1m3q3d2936363n1b2l1h27343q283l1h3d2l3q1n1h3c2l2j1k3l1g3q2m3n292g383d2424371g222h2h3m1m2g3e332a2b3c2l213c1o3o2n3o1b2o2g1b3k333p211t1t_3o2928262n373m3b2k3k332c2f2a1b37323n3q2e322h1t1t",
        "pathogg": "https://apifree.forvo.com/audio/3h2d3k2j273i2c3n3a2j1j3a3k3d2c25242g362g3d2c3q253327241k3c2a2q1j1o2b31271i24213p252q2b2j3a2k271h2d323p372m2e212k3b352d292i1l2d381l2k1g2h2l3q3o292k3h38331f3a393a3j3e36241k2h1t1t_3o1i3g262n3f221j3l22283h3g3q3624393q352j1i211t1t",
        "rate": 0,
        "num_votes": 0,
        "num_positive_votes": 0
      }
    },
    {
      "id": 401267,
      "word": "cat_burglar",
      "original": "cat burglar",
      "num_pronunciations": "1",
      "standard_pronunciation": {
        "id": 146840,
        "addtime": "2009-04-03 02:56:02",
        "hits": 341,
        "username": "ddohler",
        "sex": "m",
        "country": "United States",
        "country_code": "US",
        "code": "en",
        "langname": "English",
        "pathmp3": "https://apifree.forvo.com/audio/1h3e2j2o26261h331b273h3q1b3c222h3o251n283d2b3b2i2g31271f2g3k1l282k2a2q232g1l332g2a2c1g292l3d2b1l2m392n342f3a2f2h2p3i1j312a1b2p2a1i3d3b2m3m213b1j2b1f2j3e242g393o3l39333l3j211t1t_2i3k1p1o32223i1l3g321n3k3n28212n3k2k381i26211t1t",
        "pathogg": "https://apifree.forvo.com/audio/2n1p1k2p292j1p3j222h3m1p253p3m261l2g241p2i2g351o2c2d1o1g2h39252k1j332j2b2o37271j231k1m383h222f2p261j282j3b3m1n25222i1p29263p2i242b3j28212i3n1i283n253p3324372j3o3e1l3l3g25371t1t_3b2m2q2d36291n382e3q2i373m3e3g2g1g1p252o25211t1t",
        "rate": 0,
        "num_votes": 0,
        "num_positive_votes": 0
      }
    },
    {
      "id": 457875,
      "word": "çat",
      "original": "Çat",
      "num_pronunciations": "1",
      "standard_pronunciation": {
        "id": 958081,
        "addtime": "2011-01-09 17:59:21",
        "hits": 384,
        "username": "dabadis",
        "sex": "m",
        "country": "Turkey",
        "country_code": "TR",
        "code": "tr",
        "langname": "Turkish",
        "pathmp3": "https://apifree.forvo.com/audio/2i3e1b2i28383f1i2f273i3c2d3e1g2j1f2h2n1g3o1k3a2n253q2n2c2p3c2f2c23312i2l2q2m3p1b352k2o2c2g3q1m2l2n3b1f3p312o3o1n2j321j38212e2838223d1m2h3m25252c232i1h343h3o3i2b1j3q332g21211t1t_2l272f1m2h223q313n3h1b1f3p213b211i2l352f3n371t1t",
        "pathogg": "https://apifree.forvo.com/audio/282i2g1h2i3n3h3a2k3l2m3h3c3b3q2j1n3l2k3o3k1p2g3d233f393n1o3h2q3e3826223p2a262c2p2c2c1i1f3b271n3p221n3b2b3n2q3h1h1j261k3m2h242j1j2q1k3m2a1b2o3j3j2p2a1b3c3l3529252q1b1l3d25211t1t_34233m2c3j2q3c1g2q2i3q3c373l2j3n29392l1i1g371t1t",
        "rate": 0,
        "num_votes": 0,
        "num_positive_votes": 0
      }
    },
    {
      "id": 543994,
      "word": "cat_sìth",
      "original": "cat sìth",
      "num_pronunciations": "1",
      "standard_pronunciation": {
        "id": 3103680,
        "addtime": "2014-07-28 17:12:52",
        "hits": 761,
        "username": "hevghirl",
        "sex": "f",
        "country": "United Kingdom",
        "country_code": "GB",
        "code": "gd",
        "langname": "Scottish Gaelic",
        "pathmp3": "https://apifree.forvo.com/audio/1k28342o1n341j393i2i332h1k3o2f3e3l1o282p362a3d2b2f212g2f3p3o2c1f2i2o261g1h1g2q312d3n1i3c3j2h1j24322k271m3m2l3j2f2b1n1m2p212e2l1g_382n1i3k3j2i3o2a1p3k3j3j2822381o2n1g1p3q2n3n1t1t",
        "pathogg": "https://apifree.forvo.com/audio/263j1f261i3b2m3n3125352j331p3d2b2n1f2a2h3n3g1i3l2g2p1o3g25312l3n1g2e3o352c273p2f353d1k3p3h2e2g2o3c2q2q24381l2m1f3d1n283k3o2o1f27_273238323m252d3m1o2a232m353p3k1k3c31352j1k3n1t1t",
        "rate": 0,
        "num_votes": 0,
        "num_positive_votes": 0
      }
    },
    {
      "id": 629179,
      "word": "cát",
      "original": "Cát",
      "num_pronunciations": "1",
      "standard_pronunciation": {
        "id": 393861,
        "addtime": "2009-12-14 04:01:19",
        "hits": 279,
        "username": "MesSourires",
        "sex": "f",
        "country": "United States",
        "country_code": "US",
        "code": "vi",
        "langname": "Vietnamese",
        "pathmp3": "https://apifree.forvo.com/audio/373n3o283n1l1j1n3n2d3p363b2n2f1o2k1m2d32361o331f2c1h27382g3a1m282h2d2e2a353g3f3f3c2q3l361o2k3q392h2o3k353i2l1k1n32232q373q1h2f39362i2j3m3j262e3q3i2m2l331f2h361i1k28312o3a2h1t1t_2m3j2728332k3n2q3n1k3e1n352q25372k282l293q371t1t",
        "pathogg": "https://apifree.forvo.com/audio/3q1p381k3l1g1k2p1h363m2h3g1g3n2l1o3d3a242q3a263l271g2l3g1h392j2p393i2m3q1i332e2d322i3d3q2i3h2226393e2h3k383h232b2b2m1n2h1h3i2f3p2k1n1h2q26241m3c1f2b1l1m2e23271l1j2j333m282h1t1t_382k213a3k2i343h2n2m3b3e2b3d392m3b1b3k3g273n1t1t",
        "rate": 0,
        "num_votes": 0,
        "num_positive_votes": 0
      }
    },
    {
      "id": 642396,
      "word": "cat_olt",
      "original": "Cat Olt",
      "num_pronunciations": "1",
      "standard_pronunciation": {
        "id": 385711,
        "addtime": "2009-12-04 00:59:14",
        "hits": 363,
        "username": "Aldedogn",
        "sex": "m",
        "country": "Italy",
        "country_code": "IT",
        "code": "lmo",
        "langname": "Lombard",
        "pathmp3": "https://apifree.forvo.com/audio/3g39221p1b2q2q3d2h381g3o3h351g2e231i2h1p26381h1j1f1m39283428213d2k351l2g3h36332j1l2e3q3j261i3h3d2e2n1p2p241h3k353a1h2c1p3e1b2q361f2q3p1g2h3j1f34342a3l1j2k1o2d3f2j213p2k3g371t1t_223k391f1m3f2c1p2p3o28222j2l3n1j2k2e273c2b3n1t1t",
        "pathogg": "https://apifree.forvo.com/audio/283q3q3p3b2g3m2f1l1l2j382l2l33382e2d3q2k2o1l323j2o3f2n382j3o2n2n2h3q392j333g3d342h39291g3f3p3n3d3k3g1n1o2b1b23322p3q2a27363d311k32351p382338372a3q3j1p371n1f1h2j3i3e293q2p371t1t_3f2m3i2g34342j352l381m281l3j2d3l3m1l3e262b371t1t",
        "rate": 0,
        "num_votes": 0,
        "num_positive_votes": 0
      }
    },
    {
      "id": 646365,
      "word": "fraidy-cat",
      "original": "fraidy-cat",
      "num_pronunciations": "2",
      "standard_pronunciation": {
        "id": 2383347,
        "addtime": "2013-08-15 22:54:46",
        "hits": 314,
        "username": "dorabora",
        "sex": "f",
        "country": "United Kingdom",
        "country_code": "GB",
        "code": "en",
        "langname": "English",
        "pathmp3": "https://apifree.forvo.com/audio/272h3m1h2m2c3a2a2a2e2n3o2j2b372l3m1p3p3g3q3d1p3l282k383m3l3n2o2o2h312k1i2k243q1f1i253p3j261m222a1m3e3k3l3l1n2l2a1m33363n3e1f2932_2n2p3q3e2c3f2p2f323g3l2c323q381m3i351g3k342h1t1t",
        "pathogg": "https://apifree.forvo.com/audio/373q3o3l1j2n261k3f27271h3a3f2j2a272j1f25342p1p272d1i26261l212m3a1f2j3g262c35351f1j361h1h3b3p39311g3a2b3l3k2k3e3g3g2o1h283g2b2k1n_2j3d3n1m1h2d3e35222m2h2b2q2h283i1j223b3e3i2h1t1t",
        "rate": 1,
        "num_votes": 1,
        "num_positive_votes": 1
      }
    },
    {
      "id": 646369,
      "word": "scaredy-cat",
      "original": "scaredy-cat",
      "num_pronunciations": "2",
      "standard_pronunciation": {
        "id": 632626,
        "addtime": "2010-06-17 08:46:44",
        "hits": 346,
        "username": "Homophone",
        "sex": "m",
        "country": "United Kingdom",
        "country_code": "GB",
        "code": "en",
        "langname": "English",
        "pathmp3": "https://apifree.forvo.com/audio/1i1f252h2b3i38313p281g1p2e2m2q3e2m363n391n1l3k2p2c3i341j2o281g2h253p281k2f3e242a2j271h33372m273n24272d28291l1b2b2a373k1j2l1f1f373j323b3k3p3p2p2h3l3d1g34211o382p2j38363p1m2h1t1t_251h1p232q2h311h362e333m322n3d2k1k3638312q3n1t1t",
        "pathogg": "https://apifree.forvo.com/audio/1g3m271o1p3j29262l3b34312n2g213l2c392m253j342a2b262e363o3b232o261g22232m2e233k3k253p2p1i23391b2q233a382n3l3736241j3m1f3o1f3i293p3c2b3p312921393d1g2o392q3o3k2e231g37213g3a211t1t_1k3e3j28353a23312h263m2g2p262q1n2m36221l312h1t1t",
        "rate": 0,
        "num_votes": 0,
        "num_positive_votes": 0
      }
    },
    {
      "id": 655881,
      "word": "cât",
      "original": "cât",
      "num_pronunciations": "2",
      "standard_pronunciation": {
        "id": 406078,
        "addtime": "2009-12-29 17:04:04",
        "hits": 668,
        "username": "peterbald",
        "sex": "m",
        "country": "Romania",
        "country_code": "RO",
        "code": "ro",
        "langname": "Romanian",
        "pathmp3": "https://apifree.forvo.com/audio/3j231p3d2c283d1f2j373b243l1f3h2g2j3i1k3a3o2q2h2b231g2b3p1i1b38212a253i2q1p3e1b1b392m2o3m2a272q2b1k233h2j2l2b2g2q2g3j2n241h3q1o221g3c231o2l2d2e2l1k371l2g271b3q1k1o3j2j262l3n1t1t_392j3f34283o311o1i1n231h2a3a2g341p332m1g2p371t1t",
        "pathogg": "https://apifree.forvo.com/audio/2e3g27253m2g3l1l2d361i2m3j1l2f3j293f3g3p3b372n28361n3m2c2l291b3233211l1p1p3j2m231p1k332c3c373q1m3j3m3c2e3h3m1h2a353l2k2n3m263f3p3d1l2a3j2m3b1i2i242d3j1k372j331j1g1p1f2l2i3n1t1t_1m3k1p1l381f3q1p361k282e1k1g223o251p1o323c3n1t1t",
        "rate": 0,
        "num_votes": 0,
        "num_positive_votes": 0
      }
    },
    {
      "id": 770797,
      "word": "cheshire_cat",
      "original": "Cheshire Cat",
      "num_pronunciations": "1",
      "standard_pronunciation": {
        "id": 477237,
        "addtime": "2010-02-15 01:51:57",
        "hits": 957,
        "username": "mooncow",
        "sex": "m",
        "country": "United Kingdom",
        "country_code": "GB",
        "code": "en",
        "langname": "English",
        "pathmp3": "https://apifree.forvo.com/audio/313o33253h1o3i37232a1h342m1o211h263q3k36253g3e3c3k2j2g253p3m2d3f2q3m1b242n392f1b2i223838333e3d3c393c1j2p2f2f3k3134281m1k1p2c312j3m3k242g2i391i312l261i3d3p2e3535372f2h322n2h1t1t_1p2p1j2d2o372f382h352f2c373n3a2q3q35273c1n371t1t",
        "pathogg": "https://apifree.forvo.com/audio/1j2h3h2h3q1j1j1m2b3b251g3h391p3b3g222h3p1h232a341h1l1h1i3o243o233p3k2p34251p2l1l2g3a3d2b1h3h323f2a1j3l243h3a2f37381o251k1g1n1l1b3i353f312b3l1o3g3a1b2c3g1g1l3n38322i233e352h1t1t_3b35212e3f362l3k2a1i1k3n2b351i3l2n3n3g3k1m211t1t",
        "rate": 0,
        "num_votes": 2,
        "num_positive_votes": 1
      }
    },
    {
      "id": 770878,
      "word": "felicia_the_cat",
      "original": "Felicia the Cat",
      "num_pronunciations": "3",
      "standard_pronunciation": {
        "id": 477569,
        "addtime": "2010-02-15 04:26:53",
        "hits": 2142,
        "username": "finaleyes",
        "sex": "f",
        "country": "United States",
        "country_code": "US",
        "code": "en",
        "langname": "English",
        "pathmp3": "https://apifree.forvo.com/audio/322e1i3d3a1h2o28233i283f3h2h3d3l382k2d1f1n2q2f1m3f3j381o242e1b2i252j373j1l233a3f2j332k3l1l1i2l223m263d2a1i391o2f282o2h2o3h1b251i241f2o2b2h2c352e1g3c2i1b1i2c1g3n3c2o3h1l3k2h1t1t_333e3g22392p2j3q3m232n3m273l2g2b3a3c1f233j3n1t1t",
        "pathogg": "https://apifree.forvo.com/audio/2g2g1f3q2a1p3j3p263i1k342n393f2j253i2a3e3n1n3h3k1g342e1g262d383128342e1j3o3l3q2q39321m2d2m3j281g3q272j25263p2c2a2c3h2l1k2d251b2f36371k373i382j3l272o2e291k363d2p3i343b1b2e371t1t_362m2f1m3p2d282p3l3o1f393a36341g2o331i263i371t1t",
        "rate": 0,
        "num_votes": 0,
        "num_positive_votes": 0
      }
    },
    {
      "id": 771190,
      "word": "scat_cat",
      "original": "Scat Cat",
      "num_pronunciations": "2",
      "standard_pronunciation": {
        "id": 477482,
        "addtime": "2010-02-15 03:22:18",
        "hits": 1374,
        "username": "FongWingChung",
        "sex": "f",
        "country": "United States",
        "country_code": "US",
        "code": "en",
        "langname": "English",
        "pathmp3": "https://apifree.forvo.com/audio/1l233i2n253n2i2l313o3e2c28323n1g2o2j322d2o26363c2q1b3g28271k1b28232n212l372p3d2o35341l3i1l2c1l39292m3b1n3m2c3h381k37342h1m33252b3f3q363i223m3a1k1n3c312o293727391b3k3h23372h1t1t_3e35271p1n2n1l233i2f2f1o1b23352o2j2h3p3q362h1t1t",
        "pathogg": "https://apifree.forvo.com/audio/3m253p261h271b3a32211j343p1f2n3q2j31221g1l2f342e361k3o3n2l3p3e3f2j1n2e2i1i25323b313c3c333n2p35213j272a273i2p3j33282l3e2f2935291i252d1b352e3o3c3j312434261n371m2g3h3j3i383m371t1t_3i2p3q352c3n1b2b34252o293d3f3d3f3k1f3h3n2h3n1t1t",
        "rate": 0,
        "num_votes": 0,
        "num_positive_votes": 0
      }
    },
    {
      "id": 771245,
      "word": "veteran_cat",
      "original": "Veteran Cat",
      "num_pronunciations": "1",
      "standard_pronunciation": {
        "id": 477075,
        "addtime": "2010-02-15 01:14:47",
        "hits": 328,
        "username": "mooncow",
        "sex": "m",
        "country": "United Kingdom",
        "country_code": "GB",
        "code": "en",
        "langname": "English",
        "pathmp3": "https://apifree.forvo.com/audio/2j1g1b2c231i221m313a1g3k2h3k353j3j2n1g3g353b261l3g242b2h2d3i372p1g27223o293n3j1l2a29311i2q2n2c242p3222273q2a1h1b1f21392a3f3l35322e261l2i312p2q2n2h373g272h2f2621252p28232b3n1t1t_2c233e1i1m293j2m2b1l1i3c1m2f1f222b1f312q3b371t1t",
        "pathogg": "https://apifree.forvo.com/audio/232a2o1g3a3h3q3n2o3j1p2g212k212c2a1f372m3g2e243g2o353l3n232p2o2i1o3o3h3e2p3n1p1f1h221n212h222d3i3i3m1o3o3p3124221n3h361n2f38223a353f3c3k392c2n373c2q232d3o2l253d2e2j1g3g2j371t1t_2734272h382j2h243g3m2k3q271j1b3l2l352h3c3h211t1t",
        "rate": 1,
        "num_votes": 1,
        "num_positive_votes": 1
      }
    }
  ]
}
